{
  "info" : {
    "author" : "com.aventinestudios",
    "version" : 1
  },
  "layers" : [
    {
      "filename" : "Layer-0.imagestacklayer"
    },
    {
      "filename" : "Layer-1.imagestacklayer"
    }
  ]
}